{
  "project_info": {
    "project_number": "259980010019",
    "firebase_url": "https://fitduel-developement.firebaseio.com",
    "project_id": "fitduel-developement",
    "storage_bucket": "fitduel-developement.appspot.com"
  },
  "client": [
    {
      "client_info": {
        "mobilesdk_app_id": "1:259980010019:android:e93d5da9f0c3d748",
        "android_client_info": {
          "package_name": "co.fitduel.basicfeature"
        }
      },
      "oauth_client": [
        {
          "client_id": "259980010019-2rrcbvbqv0v4i36g3f0tmnm6orsje872.apps.googleusercontent.com",
          "client_type": 3
        }
      ],
      "api_key": [
        {
          "current_key": "AIzaSyCNoOJXY8unGnr03OxYyJqzULfWsAHtZsE"
        }
      ],
      "services": {
        "analytics_service": {
          "status": 1
        },
        "appinvite_service": {
          "status": 1,
          "other_platform_oauth_client": []
        },
        "ads_service": {
          "status": 2
        }
      }
    },
    {
      "client_info": {
        "mobilesdk_app_id": "1:259980010019:android:c64edc9f733e182b",
        "android_client_info": {
          "package_name": "co.fitduel.payment"
        }
      },
      "oauth_client": [
        {
          "client_id": "259980010019-2rrcbvbqv0v4i36g3f0tmnm6orsje872.apps.googleusercontent.com",
          "client_type": 3
        }
      ],
      "api_key": [
        {
          "current_key": "AIzaSyCNoOJXY8unGnr03OxYyJqzULfWsAHtZsE"
        }
      ],
      "services": {
        "analytics_service": {
          "status": 1
        },
        "appinvite_service": {
          "status": 1,
          "other_platform_oauth_client": []
        },
        "ads_service": {
          "status": 2
        }
      }
    },
    {
      "client_info": {
        "mobilesdk_app_id": "1:259980010019:android:e19f3a49767f480c",
        "android_client_info": {
          "package_name": "com.example.dellpc.fitduelchallenge"
        }
      },
      "oauth_client": [
        {
          "client_id": "259980010019-5o3ucehuucggo5uevv2s4sgr0t6gcdah.apps.googleusercontent.com",
          "client_type": 1,
          "android_info": {
            "package_name": "com.example.dellpc.fitduelchallenge",
            "certificate_hash": "58f450ea254c6db69aa63792a379eccc78f9ffab"
          }
        },
        {
          "client_id": "259980010019-2rrcbvbqv0v4i36g3f0tmnm6orsje872.apps.googleusercontent.com",
          "client_type": 3
        }
      ],
      "api_key": [
        {
          "current_key": "AIzaSyCNoOJXY8unGnr03OxYyJqzULfWsAHtZsE"
        }
      ],
      "services": {
        "analytics_service": {
          "status": 1
        },
        "appinvite_service": {
          "status": 2,
          "other_platform_oauth_client": [
            {
              "client_id": "259980010019-2rrcbvbqv0v4i36g3f0tmnm6orsje872.apps.googleusercontent.com",
              "client_type": 3
            }
          ]
        },
        "ads_service": {
          "status": 2
        }
      }
    },
    {
      "client_info": {
        "mobilesdk_app_id": "1:259980010019:android:30285a03297774e9",
        "android_client_info": {
          "package_name": "com.example.dellpc.fitduelfitnesschallenge"
        }
      },
      "oauth_client": [
        {
          "client_id": "259980010019-scbagmvnjb290qqgt0k5jq6jdpnum7rp.apps.googleusercontent.com",
          "client_type": 1,
          "android_info": {
            "package_name": "com.example.dellpc.fitduelfitnesschallenge",
            "certificate_hash": "58f450ea254c6db69aa63792a379eccc78f9ffab"
          }
        },
        {
          "client_id": "259980010019-2rrcbvbqv0v4i36g3f0tmnm6orsje872.apps.googleusercontent.com",
          "client_type": 3
        }
      ],
      "api_key": [
        {
          "current_key": "AIzaSyCNoOJXY8unGnr03OxYyJqzULfWsAHtZsE"
        }
      ],
      "services": {
        "analytics_service": {
          "status": 1
        },
        "appinvite_service": {
          "status": 2,
          "other_platform_oauth_client": [
            {
              "client_id": "259980010019-2rrcbvbqv0v4i36g3f0tmnm6orsje872.apps.googleusercontent.com",
              "client_type": 3
            }
          ]
        },
        "ads_service": {
          "status": 2
        }
      }
    }
  ],
  "configuration_version": "1"
}